%YAML 1.1
%TAG !u! tag:unity3d.com,2011:
--- !u!1 &5542966417086053541
GameObject:
  m_ObjectHideFlags: 0
  m_CorrespondingSourceObject: {fileID: 0}
  m_PrefabInstance: {fileID: 0}
  m_PrefabAsset: {fileID: 0}
  serializedVersion: 6
  m_Component:
  - component: {fileID: 4142348433834339889}
  - component: {fileID: 4487615303973913966}
  - component: {fileID: 7837956147512151769}
  m_Layer: 0
  m_Name: Layer1
  m_TagString: Untagged
  m_Icon: {fileID: 0}
  m_NavMeshLayer: 0
  m_StaticEditorFlags: 0
  m_IsActive: 1
--- !u!4 &4142348433834339889
Transform:
  m_ObjectHideFlags: 0
  m_CorrespondingSourceObject: {fileID: 0}
  m_PrefabInstance: {fileID: 0}
  m_PrefabAsset: {fileID: 0}
  m_GameObject: {fileID: 5542966417086053541}
  serializedVersion: 2
  m_LocalRotation: {x: -0, y: -0, z: -0, w: 1}
  m_LocalPosition: {x: 0, y: 0, z: 0}
  m_LocalScale: {x: 1, y: 1, z: 1}
  m_ConstrainProportionsScale: 0
  m_Children: []
  m_Father: {fileID: 2286987030181537416}
  m_LocalEulerAnglesHint: {x: 0, y: 0, z: 0}
--- !u!1839735485 &4487615303973913966
Tilemap:
  m_ObjectHideFlags: 0
  m_CorrespondingSourceObject: {fileID: 0}
  m_PrefabInstance: {fileID: 0}
  m_PrefabAsset: {fileID: 0}
  m_GameObject: {fileID: 5542966417086053541}
  m_Enabled: 1
  m_Tiles:
  - first: {x: -3, y: -11, z: 0}
    second:
      serializedVersion: 2
      m_TileIndex: 42
      m_TileSpriteIndex: 0
      m_TileMatrixIndex: 0
      m_TileColorIndex: 0
      m_TileObjectToInstantiateIndex: 65535
      dummyAlignment: 0
      m_AllTileFlags: 1073741825
  - first: {x: -2, y: -11, z: 0}
    second:
      serializedVersion: 2
      m_TileIndex: 43
      m_TileSpriteIndex: 1
      m_TileMatrixIndex: 0
      m_TileColorIndex: 0
      m_TileObjectToInstantiateIndex: 65535
      dummyAlignment: 0
      m_AllTileFlags: 1073741825
  - first: {x: -1, y: -11, z: 0}
    second:
      serializedVersion: 2
      m_TileIndex: 44
      m_TileSpriteIndex: 2
      m_TileMatrixIndex: 0
      m_TileColorIndex: 0
      m_TileObjectToInstantiateIndex: 65535
      dummyAlignment: 0
      m_AllTileFlags: 1073741825
  - first: {x: 0, y: -11, z: 0}
    second:
      serializedVersion: 2
      m_TileIndex: 45
      m_TileSpriteIndex: 3
      m_TileMatrixIndex: 0
      m_TileColorIndex: 0
      m_TileObjectToInstantiateIndex: 65535
      dummyAlignment: 0
      m_AllTileFlags: 1073741825
  - first: {x: -3, y: -10, z: 0}
    second:
      serializedVersion: 2
      m_TileIndex: 38
      m_TileSpriteIndex: 4
      m_TileMatrixIndex: 0
      m_TileColorIndex: 0
      m_TileObjectToInstantiateIndex: 65535
      dummyAlignment: 0
      m_AllTileFlags: 1073741825
  - first: {x: -2, y: -10, z: 0}
    second:
      serializedVersion: 2
      m_TileIndex: 39
      m_TileSpriteIndex: 5
      m_TileMatrixIndex: 0
      m_TileColorIndex: 0
      m_TileObjectToInstantiateIndex: 65535
      dummyAlignment: 0
      m_AllTileFlags: 1073741825
  - first: {x: -1, y: -10, z: 0}
    second:
      serializedVersion: 2
      m_TileIndex: 40
      m_TileSpriteIndex: 6
      m_TileMatrixIndex: 0
      m_TileColorIndex: 0
      m_TileObjectToInstantiateIndex: 65535
      dummyAlignment: 0
      m_AllTileFlags: 1073741825
  - first: {x: 0, y: -10, z: 0}
    second:
      serializedVersion: 2
      m_TileIndex: 41
      m_TileSpriteIndex: 7
      m_TileMatrixIndex: 0
      m_TileColorIndex: 0
      m_TileObjectToInstantiateIndex: 65535
      dummyAlignment: 0
      m_AllTileFlags: 1073741825
  - first: {x: 3, y: -10, z: 0}
    second:
      serializedVersion: 2
      m_TileIndex: 46
      m_TileSpriteIndex: 8
      m_TileMatrixIndex: 0
      m_TileColorIndex: 0
      m_TileObjectToInstantiateIndex: 65535
      dummyAlignment: 0
      m_AllTileFlags: 1073741826
  - first: {x: -3, y: -9, z: 0}
    second:
      serializedVersion: 2
      m_TileIndex: 34
      m_TileSpriteIndex: 9
      m_TileMatrixIndex: 0
      m_TileColorIndex: 0
      m_TileObjectToInstantiateIndex: 65535
      dummyAlignment: 0
      m_AllTileFlags: 1073741825
  - first: {x: -2, y: -9, z: 0}
    second:
      serializedVersion: 2
      m_TileIndex: 35
      m_TileSpriteIndex: 10
      m_TileMatrixIndex: 0
      m_TileColorIndex: 0
      m_TileObjectToInstantiateIndex: 65535
      dummyAlignment: 0
      m_AllTileFlags: 1073741825
  - first: {x: -1, y: -9, z: 0}
    second:
      serializedVersion: 2
      m_TileIndex: 36
      m_TileSpriteIndex: 11
      m_TileMatrixIndex: 0
      m_TileColorIndex: 0
      m_TileObjectToInstantiateIndex: 65535
      dummyAlignment: 0
      m_AllTileFlags: 1073741825
  - first: {x: 0, y: -9, z: 0}
    second:
      serializedVersion: 2
      m_TileIndex: 37
      m_TileSpriteIndex: 12
      m_TileMatrixIndex: 0
      m_TileColorIndex: 0
      m_TileObjectToInstantiateIndex: 65535
      dummyAlignment: 0
      m_AllTileFlags: 1073741825
  - first: {x: -3, y: -8, z: 0}
    second:
      serializedVersion: 2
      m_TileIndex: 30
      m_TileSpriteIndex: 13
      m_TileMatrixIndex: 0
      m_TileColorIndex: 0
      m_TileObjectToInstantiateIndex: 65535
      dummyAlignment: 0
      m_AllTileFlags: 1073741825
  - first: {x: -2, y: -8, z: 0}
    second:
      serializedVersion: 2
      m_TileIndex: 31
      m_TileSpriteIndex: 14
      m_TileMatrixIndex: 0
      m_TileColorIndex: 0
      m_TileObjectToInstantiateIndex: 65535
      dummyAlignment: 0
      m_AllTileFlags: 1073741825
  - first: {x: -1, y: -8, z: 0}
    second:
      serializedVersion: 2
      m_TileIndex: 32
      m_TileSpriteIndex: 15
      m_TileMatrixIndex: 0
      m_TileColorIndex: 0
      m_TileObjectToInstantiateIndex: 65535
      dummyAlignment: 0
      m_AllTileFlags: 1073741825
  - first: {x: 0, y: -8, z: 0}
    second:
      serializedVersion: 2
      m_TileIndex: 33
      m_TileSpriteIndex: 16
      m_TileMatrixIndex: 0
      m_TileColorIndex: 0
      m_TileObjectToInstantiateIndex: 65535
      dummyAlignment: 0
      m_AllTileFlags: 1073741825
  - first: {x: -6, y: -6, z: 0}
    second:
      serializedVersion: 2
      m_TileIndex: 49
      m_TileSpriteIndex: 48
      m_TileMatrixIndex: 0
      m_TileColorIndex: 0
      m_TileObjectToInstantiateIndex: 65535
      dummyAlignment: 0
      m_AllTileFlags: 1073741825
  - first: {x: -4, y: -6, z: 0}
    second:
      serializedVersion: 2
      m_TileIndex: 48
      m_TileSpriteIndex: 47
      m_TileMatrixIndex: 0
      m_TileColorIndex: 0
      m_TileObjectToInstantiateIndex: 65535
      dummyAlignment: 0
      m_AllTileFlags: 1073741825
  - first: {x: -1, y: -6, z: 0}
    second:
      serializedVersion: 2
      m_TileIndex: 47
      m_TileSpriteIndex: 46
      m_TileMatrixIndex: 0
      m_TileColorIndex: 0
      m_TileObjectToInstantiateIndex: 65535
      dummyAlignment: 0
      m_AllTileFlags: 1073741825
  - first: {x: 0, y: -5, z: 0}
    second:
      serializedVersion: 2
      m_TileIndex: 25
      m_TileSpriteIndex: 17
      m_TileMatrixIndex: 0
      m_TileColorIndex: 0
      m_TileObjectToInstantiateIndex: 65535
      dummyAlignment: 0
      m_AllTileFlags: 1073741825
  - first: {x: 1, y: -5, z: 0}
    second:
      serializedVersion: 2
      m_TileIndex: 26
      m_TileSpriteIndex: 18
      m_TileMatrixIndex: 0
      m_TileColorIndex: 0
      m_TileObjectToInstantiateIndex: 65535
      dummyAlignment: 0
      m_AllTileFlags: 1073741825
  - first: {x: 2, y: -5, z: 0}
    second:
      serializedVersion: 2
      m_TileIndex: 27
      m_TileSpriteIndex: 19
      m_TileMatrixIndex: 0
      m_TileColorIndex: 0
      m_TileObjectToInstantiateIndex: 65535
      dummyAlignment: 0
      m_AllTileFlags: 1073741825
  - first: {x: 3, y: -5, z: 0}
    second:
      serializedVersion: 2
      m_TileIndex: 28
      m_TileSpriteIndex: 20
      m_TileMatrixIndex: 0
      m_TileColorIndex: 0
      m_TileObjectToInstantiateIndex: 65535
      dummyAlignment: 0
      m_AllTileFlags: 1073741825
  - first: {x: 4, y: -5, z: 0}
    second:
      serializedVersion: 2
      m_TileIndex: 29
      m_TileSpriteIndex: 21
      m_TileMatrixIndex: 0
      m_TileColorIndex: 0
      m_TileObjectToInstantiateIndex: 65535
      dummyAlignment: 0
      m_AllTileFlags: 1073741825
  - first: {x: 0, y: -4, z: 0}
    second:
      serializedVersion: 2
      m_TileIndex: 20
      m_TileSpriteIndex: 22
      m_TileMatrixIndex: 0
      m_TileColorIndex: 0
      m_TileObjectToInstantiateIndex: 65535
      dummyAlignment: 0
      m_AllTileFlags: 1073741825
  - first: {x: 1, y: -4, z: 0}
    second:
      serializedVersion: 2
      m_TileIndex: 21
      m_TileSpriteIndex: 23
      m_TileMatrixIndex: 0
      m_TileColorIndex: 0
      m_TileObjectToInstantiateIndex: 65535
      dummyAlignment: 0
      m_AllTileFlags: 1073741825
  - first: {x: 2, y: -4, z: 0}
    second:
      serializedVersion: 2
      m_TileIndex: 22
      m_TileSpriteIndex: 24
      m_TileMatrixIndex: 0
      m_TileColorIndex: 0
      m_TileObjectToInstantiateIndex: 65535
      dummyAlignment: 0
      m_AllTileFlags: 1073741825
  - first: {x: 3, y: -4, z: 0}
    second:
      serializedVersion: 2
      m_TileIndex: 23
      m_TileSpriteIndex: 25
      m_TileMatrixIndex: 0
      m_TileColorIndex: 0
      m_TileObjectToInstantiateIndex: 65535
      dummyAlignment: 0
      m_AllTileFlags: 1073741825
  - first: {x: 4, y: -4, z: 0}
    second:
      serializedVersion: 2
      m_TileIndex: 24
      m_TileSpriteIndex: 26
      m_TileMatrixIndex: 0
      m_TileColorIndex: 0
      m_TileObjectToInstantiateIndex: 65535
      dummyAlignment: 0
      m_AllTileFlags: 1073741825
  - first: {x: -4, y: -3, z: 0}
    second:
      serializedVersion: 2
      m_TileIndex: 15
      m_TileSpriteIndex: 27
      m_TileMatrixIndex: 0
      m_TileColorIndex: 0
      m_TileObjectToInstantiateIndex: 65535
      dummyAlignment: 0
      m_AllTileFlags: 1073741825
  - first: {x: -3, y: -3, z: 0}
    second:
      serializedVersion: 2
      m_TileIndex: 16
      m_TileSpriteIndex: 28
      m_TileMatrixIndex: 0
      m_TileColorIndex: 0
      m_TileObjectToInstantiateIndex: 65535
      dummyAlignment: 0
      m_AllTileFlags: 1073741825
  - first: {x: -2, y: -3, z: 0}
    second:
      serializedVersion: 2
      m_TileIndex: 17
      m_TileSpriteIndex: 29
      m_TileMatrixIndex: 0
      m_TileColorIndex: 0
      m_TileObjectToInstantiateIndex: 65535
      dummyAlignment: 0
      m_AllTileFlags: 1073741825
  - first: {x: -1, y: -3, z: 0}
    second:
      serializedVersion: 2
      m_TileIndex: 15
      m_TileSpriteIndex: 27
      m_TileMatrixIndex: 1
      m_TileColorIndex: 0
      m_TileObjectToInstantiateIndex: 65535
      dummyAlignment: 0
      m_AllTileFlags: 1073741825
  - first: {x: 3, y: -3, z: 0}
    second:
      serializedVersion: 2
      m_TileIndex: 18
      m_TileSpriteIndex: 30
      m_TileMatrixIndex: 0
      m_TileColorIndex: 0
      m_TileObjectToInstantiateIndex: 65535
      dummyAlignment: 0
      m_AllTileFlags: 1073741825
  - first: {x: 4, y: -3, z: 0}
    second:
      serializedVersion: 2
      m_TileIndex: 19
      m_TileSpriteIndex: 31
      m_TileMatrixIndex: 0
      m_TileColorIndex: 0
      m_TileObjectToInstantiateIndex: 65535
      dummyAlignment: 0
      m_AllTileFlags: 1073741825
  - first: {x: -4, y: -2, z: 0}
    second:
      serializedVersion: 2
      m_TileIndex: 10
      m_TileSpriteIndex: 32
      m_TileMatrixIndex: 0
      m_TileColorIndex: 0
      m_TileObjectToInstantiateIndex: 65535
      dummyAlignment: 0
      m_AllTileFlags: 1073741825
  - first: {x: -3, y: -2, z: 0}
    second:
      serializedVersion: 2
      m_TileIndex: 11
      m_TileSpriteIndex: 33
      m_TileMatrixIndex: 0
      m_TileColorIndex: 0
      m_TileObjectToInstantiateIndex: 65535
      dummyAlignment: 0
      m_AllTileFlags: 1073741825
  - first: {x: -2, y: -2, z: 0}
    second:
      serializedVersion: 2
      m_TileIndex: 12
      m_TileSpriteIndex: 34
      m_TileMatrixIndex: 0
      m_TileColorIndex: 0
      m_TileObjectToInstantiateIndex: 65535
      dummyAlignment: 0
      m_AllTileFlags: 1073741825
  - first: {x: -1, y: -2, z: 0}
    second:
      serializedVersion: 2
      m_TileIndex: 10
      m_TileSpriteIndex: 32
      m_TileMatrixIndex: 1
      m_TileColorIndex: 0
      m_TileObjectToInstantiateIndex: 65535
      dummyAlignment: 0
      m_AllTileFlags: 1073741825
  - first: {x: 3, y: -2, z: 0}
    second:
      serializedVersion: 2
      m_TileIndex: 13
      m_TileSpriteIndex: 35
      m_TileMatrixIndex: 0
      m_TileColorIndex: 0
      m_TileObjectToInstantiateIndex: 65535
      dummyAlignment: 0
      m_AllTileFlags: 1073741825
  - first: {x: 4, y: -2, z: 0}
    second:
      serializedVersion: 2
      m_TileIndex: 14
      m_TileSpriteIndex: 36
      m_TileMatrixIndex: 0
      m_TileColorIndex: 0
      m_TileObjectToInstantiateIndex: 65535
      dummyAlignment: 0
      m_AllTileFlags: 1073741825
  - first: {x: -4, y: -1, z: 0}
    second:
      serializedVersion: 2
      m_TileIndex: 5
      m_TileSpriteIndex: 37
      m_TileMatrixIndex: 0
      m_TileColorIndex: 0
      m_TileObjectToInstantiateIndex: 65535
      dummyAlignment: 0
      m_AllTileFlags: 1073741825
  - first: {x: -3, y: -1, z: 0}
    second:
      serializedVersion: 2
      m_TileIndex: 11
      m_TileSpriteIndex: 33
      m_TileMatrixIndex: 0
      m_TileColorIndex: 0
      m_TileObjectToInstantiateIndex: 65535
      dummyAlignment: 0
      m_AllTileFlags: 1073741825
  - first: {x: -2, y: -1, z: 0}
    second:
      serializedVersion: 2
      m_TileIndex: 12
      m_TileSpriteIndex: 34
      m_TileMatrixIndex: 0
      m_TileColorIndex: 0
      m_TileObjectToInstantiateIndex: 65535
      dummyAlignment: 0
      m_AllTileFlags: 1073741825
  - first: {x: -1, y: -1, z: 0}
    second:
      serializedVersion: 2
      m_TileIndex: 5
      m_TileSpriteIndex: 37
      m_TileMatrixIndex: 1
      m_TileColorIndex: 0
      m_TileObjectToInstantiateIndex: 65535
      dummyAlignment: 0
      m_AllTileFlags: 1073741825
  - first: {x: 1, y: -1, z: 0}
    second:
      serializedVersion: 2
      m_TileIndex: 6
      m_TileSpriteIndex: 38
      m_TileMatrixIndex: 0
      m_TileColorIndex: 0
      m_TileObjectToInstantiateIndex: 65535
      dummyAlignment: 0
      m_AllTileFlags: 1073741825
  - first: {x: 2, y: -1, z: 0}
    second:
      serializedVersion: 2
      m_TileIndex: 7
      m_TileSpriteIndex: 39
      m_TileMatrixIndex: 0
      m_TileColorIndex: 0
      m_TileObjectToInstantiateIndex: 65535
      dummyAlignment: 0
      m_AllTileFlags: 1073741825
  - first: {x: 3, y: -1, z: 0}
    second:
      serializedVersion: 2
      m_TileIndex: 8
      m_TileSpriteIndex: 40
      m_TileMatrixIndex: 0
      m_TileColorIndex: 0
      m_TileObjectToInstantiateIndex: 65535
      dummyAlignment: 0
      m_AllTileFlags: 1073741825
  - first: {x: 4, y: -1, z: 0}
    second:
      serializedVersion: 2
      m_TileIndex: 9
      m_TileSpriteIndex: 41
      m_TileMatrixIndex: 0
      m_TileColorIndex: 0
      m_TileObjectToInstantiateIndex: 65535
      dummyAlignment: 0
      m_AllTileFlags: 1073741825
  - first: {x: -4, y: 0, z: 0}
    second:
      serializedVersion: 2
      m_TileIndex: 0
      m_TileSpriteIndex: 42
      m_TileMatrixIndex: 0
      m_TileColorIndex: 0
      m_TileObjectToInstantiateIndex: 65535
      dummyAlignment: 0
      m_AllTileFlags: 1073741825
  - first: {x: -3, y: 0, z: 0}
    second:
      serializedVersion: 2
      m_TileIndex: 1
      m_TileSpriteIndex: 43
      m_TileMatrixIndex: 0
      m_TileColorIndex: 0
      m_TileObjectToInstantiateIndex: 65535
      dummyAlignment: 0
      m_AllTileFlags: 1073741825
  - first: {x: -2, y: 0, z: 0}
    second:
      serializedVersion: 2
      m_TileIndex: 2
      m_TileSpriteIndex: 44
      m_TileMatrixIndex: 0
      m_TileColorIndex: 0
      m_TileObjectToInstantiateIndex: 65535
      dummyAlignment: 0
      m_AllTileFlags: 1073741825
  - first: {x: -1, y: 0, z: 0}
    second:
      serializedVersion: 2
      m_TileIndex: 0
      m_TileSpriteIndex: 42
      m_TileMatrixIndex: 1
      m_TileColorIndex: 0
      m_TileObjectToInstantiateIndex: 65535
      dummyAlignment: 0
      m_AllTileFlags: 1073741825
  - first: {x: 3, y: 0, z: 0}
    second:
      serializedVersion: 2
      m_TileIndex: 3
      m_TileSpriteIndex: 8
      m_TileMatrixIndex: 0
      m_TileColorIndex: 0
      m_TileObjectToInstantiateIndex: 65535
      dummyAlignment: 0
      m_AllTileFlags: 1073741825
  - first: {x: 4, y: 0, z: 0}
    second:
      serializedVersion: 2
      m_TileIndex: 4
      m_TileSpriteIndex: 45
      m_TileMatrixIndex: 0
      m_TileColorIndex: 0
      m_TileObjectToInstantiateIndex: 65535
      dummyAlignment: 0
      m_AllTileFlags: 1073741825
  m_AnimatedTiles: {}
  m_TileAssetArray:
  - m_RefCount: 2
    m_Data: {fileID: 11400000, guid: c472dd7a1e6c0f74bb9612198a7a1278, type: 2}
  - m_RefCount: 1
    m_Data: {fileID: 11400000, guid: 238219ba6db06b441b976b8ffb111113, type: 2}
  - m_RefCount: 1
    m_Data: {fileID: 11400000, guid: 97e477d0ec3e44646ac7f24faf58066d, type: 2}
  - m_RefCount: 1
    m_Data: {fileID: 11400000, guid: a0b81faef1f34764d9a7f233bde5c9c1, type: 2}
  - m_RefCount: 1
    m_Data: {fileID: 11400000, guid: 9ab6e07bc7daac748866c4e54682c184, type: 2}
  - m_RefCount: 2
    m_Data: {fileID: 11400000, guid: 357ccf00a1689fc499d45059dc616ddf, type: 2}
  - m_RefCount: 1
    m_Data: {fileID: 11400000, guid: e58c59de9e227f84cbb6e4d9bc894b71, type: 2}
  - m_RefCount: 1
    m_Data: {fileID: 11400000, guid: 529ce89d1637889408f0addaa3d33ff2, type: 2}
  - m_RefCount: 1
    m_Data: {fileID: 11400000, guid: 37ead4c468a6e8a469d2ccad53822562, type: 2}
  - m_RefCount: 1
    m_Data: {fileID: 11400000, guid: d274135aa6c47b7439890cc32ef8e59a, type: 2}
  - m_RefCount: 2
    m_Data: {fileID: 11400000, guid: a785f346205adc8498b03146ab18bf10, type: 2}
  - m_RefCount: 2
    m_Data: {fileID: 11400000, guid: 1f62e0a72fa4cf64daa4f109dfc78016, type: 2}
  - m_RefCount: 2
    m_Data: {fileID: 11400000, guid: 4f87f538b2fc8fe46b6577d102f7097b, type: 2}
  - m_RefCount: 1
    m_Data: {fileID: 11400000, guid: 34d4f82059f670a47a4e3adffc444e1c, type: 2}
  - m_RefCount: 1
    m_Data: {fileID: 11400000, guid: c38ed358a3024114fa3b1093b326f000, type: 2}
  - m_RefCount: 2
    m_Data: {fileID: 11400000, guid: fe918dbc369a0314cb14219818795d96, type: 2}
  - m_RefCount: 1
    m_Data: {fileID: 11400000, guid: 0205e6b5ad3743f4a8f9c8cb97ce895d, type: 2}
  - m_RefCount: 1
    m_Data: {fileID: 11400000, guid: bbc77568bdd606b4587e04d00fdce71b, type: 2}
  - m_RefCount: 1
    m_Data: {fileID: 11400000, guid: bfe4697a0d5b17a448d0c588c85434e7, type: 2}
  - m_RefCount: 1
    m_Data: {fileID: 11400000, guid: 9ec3fcb206672c74ebb5a45e89c06f55, type: 2}
  - m_RefCount: 1
    m_Data: {fileID: 11400000, guid: eb37b26ce7cd6d84b82d703bb02481f3, type: 2}
  - m_RefCount: 1
    m_Data: {fileID: 11400000, guid: f1d6bc34b990bbc418e16bc0f8b36617, type: 2}
  - m_RefCount: 1
    m_Data: {fileID: 11400000, guid: d903551d9fcd61145a0288cf3e4ab345, type: 2}
  - m_RefCount: 1
    m_Data: {fileID: 11400000, guid: 9e140a736b8c7ba49b0a9bb1945e3231, type: 2}
  - m_RefCount: 1
    m_Data: {fileID: 11400000, guid: 74e1184edd2e0194ba0bd8171185ddcc, type: 2}
  - m_RefCount: 1
    m_Data: {fileID: 11400000, guid: be58038171461874cb7a3c3a3ef98a91, type: 2}
  - m_RefCount: 1
    m_Data: {fileID: 11400000, guid: 1ce87ccc1c9836749bcd68c5d1d95958, type: 2}
  - m_RefCount: 1
    m_Data: {fileID: 11400000, guid: 634cfee8cca25d048b927a6103274951, type: 2}
  - m_RefCount: 1
    m_Data: {fileID: 11400000, guid: bea1ed1d0253e474b8ea64535e41c71f, type: 2}
  - m_RefCount: 1
    m_Data: {fileID: 11400000, guid: a0ac4d4fbbaa9564eba2ec0c3103f113, type: 2}
  - m_RefCount: 1
    m_Data: {fileID: 11400000, guid: 27001e6151e90f64ab985dfae49b1d93, type: 2}
  - m_RefCount: 1
    m_Data: {fileID: 11400000, guid: 7a33fb954872d7749a54792a63d80d15, type: 2}
  - m_RefCount: 1
    m_Data: {fileID: 11400000, guid: d9f047755a0e9764887ddf108e5e126a, type: 2}
  - m_RefCount: 1
    m_Data: {fileID: 11400000, guid: 5f5f034707e9dce46af5c6213ce7b983, type: 2}
  - m_RefCount: 1
    m_Data: {fileID: 11400000, guid: f2bc406005f0a8a43840f37eaf2bf0f6, type: 2}
  - m_RefCount: 1
    m_Data: {fileID: 11400000, guid: e81312ebf5b01cd4db27b3c80e37996a, type: 2}
  - m_RefCount: 1
    m_Data: {fileID: 11400000, guid: 576062c38c5020f46b1e069e123caefc, type: 2}
  - m_RefCount: 1
    m_Data: {fileID: 11400000, guid: ca60177cb80a0b547bed4194cda6d505, type: 2}
  - m_RefCount: 1
    m_Data: {fileID: 11400000, guid: 4609a1aecb5ccca4b8a996b9c3e53bb6, type: 2}
  - m_RefCount: 1
    m_Data: {fileID: 11400000, guid: 4085d7686e234f04cad6abd01bfaa7f5, type: 2}
  - m_RefCount: 1
    m_Data: {fileID: 11400000, guid: 39c5395e50cde114fbec39b5b5fe482b, type: 2}
  - m_RefCount: 1
    m_Data: {fileID: 11400000, guid: fd0766705b32ca94a8a0d3d609beb253, type: 2}
  - m_RefCount: 1
    m_Data: {fileID: 11400000, guid: b19ed34f2b2a33e419efedfbfcebbc05, type: 2}
  - m_RefCount: 1
    m_Data: {fileID: 11400000, guid: b383f58931483be4aa5963f5f95f868c, type: 2}
  - m_RefCount: 1
    m_Data: {fileID: 11400000, guid: 471dd2c35fc49b3459d9a223c137351f, type: 2}
  - m_RefCount: 1
    m_Data: {fileID: 11400000, guid: c9a635a0c09dc404bbe73e8e83ae5466, type: 2}
  - m_RefCount: 1
    m_Data: {fileID: 11400000, guid: 5e3fb3a9cc475ef4cb6999419a459dfb, type: 2}
  - m_RefCount: 1
    m_Data: {fileID: 11400000, guid: aa3b8b0c8a005454c9c7821696187135, type: 2}
  - m_RefCount: 1
    m_Data: {fileID: 11400000, guid: 0e86b7466650c3b41a6e481e4c9aa332, type: 2}
  - m_RefCount: 1
    m_Data: {fileID: 11400000, guid: c9071c2e8e17145428b0e24e087b20b3, type: 2}
  m_TileSpriteArray:
  - m_RefCount: 1
    m_Data: {fileID: 1857423105, guid: 4ab942d3fa8990b41954f3a5efcbc592, type: 3}
  - m_RefCount: 1
    m_Data: {fileID: -285076799, guid: 4ab942d3fa8990b41954f3a5efcbc592, type: 3}
  - m_RefCount: 1
    m_Data: {fileID: -2023534895, guid: 4ab942d3fa8990b41954f3a5efcbc592, type: 3}
  - m_RefCount: 1
    m_Data: {fileID: -634232168, guid: 4ab942d3fa8990b41954f3a5efcbc592, type: 3}
  - m_RefCount: 1
    m_Data: {fileID: 1270374846, guid: 4ab942d3fa8990b41954f3a5efcbc592, type: 3}
  - m_RefCount: 1
    m_Data: {fileID: -610246771, guid: 4ab942d3fa8990b41954f3a5efcbc592, type: 3}
  - m_RefCount: 1
    m_Data: {fileID: -1197674611, guid: 4ab942d3fa8990b41954f3a5efcbc592, type: 3}
  - m_RefCount: 1
    m_Data: {fileID: 966202569, guid: 4ab942d3fa8990b41954f3a5efcbc592, type: 3}
  - m_RefCount: 2
    m_Data: {fileID: -839958485, guid: 5aa31cf68a0015a429d0f25f3b94b4f2, type: 3}
  - m_RefCount: 1
    m_Data: {fileID: -1326473699, guid: 4ab942d3fa8990b41954f3a5efcbc592, type: 3}
  - m_RefCount: 1
    m_Data: {fileID: 1857998895, guid: 4ab942d3fa8990b41954f3a5efcbc592, type: 3}
  - m_RefCount: 1
    m_Data: {fileID: 259352324, guid: 4ab942d3fa8990b41954f3a5efcbc592, type: 3}
  - m_RefCount: 1
    m_Data: {fileID: 1909170085, guid: 4ab942d3fa8990b41954f3a5efcbc592, type: 3}
  - m_RefCount: 1
    m_Data: {fileID: -1393769236, guid: 4ab942d3fa8990b41954f3a5efcbc592, type: 3}
  - m_RefCount: 1
    m_Data: {fileID: -518207239, guid: 4ab942d3fa8990b41954f3a5efcbc592, type: 3}
  - m_RefCount: 1
    m_Data: {fileID: 2013530130, guid: 4ab942d3fa8990b41954f3a5efcbc592, type: 3}
  - m_RefCount: 1
    m_Data: {fileID: 337136971, guid: 4ab942d3fa8990b41954f3a5efcbc592, type: 3}
  - m_RefCount: 1
    m_Data: {fileID: -1391782866, guid: 5aa31cf68a0015a429d0f25f3b94b4f2, type: 3}
  - m_RefCount: 1
    m_Data: {fileID: 1187434514, guid: 5aa31cf68a0015a429d0f25f3b94b4f2, type: 3}
  - m_RefCount: 1
    m_Data: {fileID: -159106492, guid: 5aa31cf68a0015a429d0f25f3b94b4f2, type: 3}
  - m_RefCount: 1
    m_Data: {fileID: -1435570750, guid: 5aa31cf68a0015a429d0f25f3b94b4f2, type: 3}
  - m_RefCount: 1
    m_Data: {fileID: 554326663, guid: 5aa31cf68a0015a429d0f25f3b94b4f2, type: 3}
  - m_RefCount: 1
    m_Data: {fileID: 2092064893, guid: 5aa31cf68a0015a429d0f25f3b94b4f2, type: 3}
  - m_RefCount: 1
    m_Data: {fileID: 459275996, guid: 5aa31cf68a0015a429d0f25f3b94b4f2, type: 3}
  - m_RefCount: 1
    m_Data: {fileID: -1481367768, guid: 5aa31cf68a0015a429d0f25f3b94b4f2, type: 3}
  - m_RefCount: 1
    m_Data: {fileID: -580682492, guid: 5aa31cf68a0015a429d0f25f3b94b4f2, type: 3}
  - m_RefCount: 1
    m_Data: {fileID: -577907225, guid: 5aa31cf68a0015a429d0f25f3b94b4f2, type: 3}
  - m_RefCount: 2
    m_Data: {fileID: 1764165012, guid: 5aa31cf68a0015a429d0f25f3b94b4f2, type: 3}
  - m_RefCount: 1
    m_Data: {fileID: 871205875, guid: 5aa31cf68a0015a429d0f25f3b94b4f2, type: 3}
  - m_RefCount: 1
    m_Data: {fileID: 518431922, guid: 5aa31cf68a0015a429d0f25f3b94b4f2, type: 3}
  - m_RefCount: 1
    m_Data: {fileID: -933091235, guid: 5aa31cf68a0015a429d0f25f3b94b4f2, type: 3}
  - m_RefCount: 1
    m_Data: {fileID: -1806089271, guid: 5aa31cf68a0015a429d0f25f3b94b4f2, type: 3}
  - m_RefCount: 2
    m_Data: {fileID: 341953046, guid: 5aa31cf68a0015a429d0f25f3b94b4f2, type: 3}
  - m_RefCount: 2
    m_Data: {fileID: 1876833739, guid: 5aa31cf68a0015a429d0f25f3b94b4f2, type: 3}
  - m_RefCount: 2
    m_Data: {fileID: -1689974214, guid: 5aa31cf68a0015a429d0f25f3b94b4f2, type: 3}
  - m_RefCount: 1
    m_Data: {fileID: -1633646504, guid: 5aa31cf68a0015a429d0f25f3b94b4f2, type: 3}
  - m_RefCount: 1
    m_Data: {fileID: -131647405, guid: 5aa31cf68a0015a429d0f25f3b94b4f2, type: 3}
  - m_RefCount: 2
    m_Data: {fileID: 1372405074, guid: 5aa31cf68a0015a429d0f25f3b94b4f2, type: 3}
  - m_RefCount: 1
    m_Data: {fileID: 1110950251, guid: 5aa31cf68a0015a429d0f25f3b94b4f2, type: 3}
  - m_RefCount: 1
    m_Data: {fileID: -495995945, guid: 5aa31cf68a0015a429d0f25f3b94b4f2, type: 3}
  - m_RefCount: 1
    m_Data: {fileID: 113105058, guid: 5aa31cf68a0015a429d0f25f3b94b4f2, type: 3}
  - m_RefCount: 1
    m_Data: {fileID: 630329349, guid: 5aa31cf68a0015a429d0f25f3b94b4f2, type: 3}
  - m_RefCount: 2
    m_Data: {fileID: 1406440146, guid: 5aa31cf68a0015a429d0f25f3b94b4f2, type: 3}
  - m_RefCount: 1
    m_Data: {fileID: 1309404068, guid: 5aa31cf68a0015a429d0f25f3b94b4f2, type: 3}
  - m_RefCount: 1
    m_Data: {fileID: -928961892, guid: 5aa31cf68a0015a429d0f25f3b94b4f2, type: 3}
  - m_RefCount: 1
    m_Data: {fileID: -59556534, guid: 5aa31cf68a0015a429d0f25f3b94b4f2, type: 3}
  - m_RefCount: 1
    m_Data: {fileID: 21300000, guid: 785ffd00cdeca1244835dbed2cf3e3f1, type: 3}
  - m_RefCount: 1
    m_Data: {fileID: 21300000, guid: b8ec373e34ebbbd49bac062abb3eb2cc, type: 3}
  - m_RefCount: 1
    m_Data: {fileID: 21300000, guid: 40761b4efe8d84d49bfb5a38614174c3, type: 3}
  m_TileMatrixArray:
  - m_RefCount: 52
    m_Data:
      e00: 1
      e01: 0
      e02: 0
      e03: 0
      e10: 0
      e11: 1
      e12: 0
      e13: 0
      e20: 0
      e21: 0
      e22: 1
      e23: 0
      e30: 0
      e31: 0
      e32: 0
      e33: 1
  - m_RefCount: 4
    m_Data:
      e00: -1
      e01: 0
      e02: 0
      e03: 0
      e10: -0
      e11: 1
      e12: 0
      e13: 0
      e20: -0
      e21: 0
      e22: 1
      e23: 0
      e30: 0
      e31: 0
      e32: 0
      e33: 1
  m_TileColorArray:
  - m_RefCount: 56
    m_Data: {r: 1, g: 1, b: 1, a: 1}
  m_TileObjectToInstantiateArray: []
  m_AnimationFrameRate: 1
  m_Color: {r: 1, g: 1, b: 1, a: 1}
  m_Origin: {x: -6, y: -11, z: 0}
  m_Size: {x: 11, y: 12, z: 1}
  m_TileAnchor: {x: 0.5, y: 0.5, z: 0}
  m_TileOrientation: 0
  m_TileOrientationMatrix:
    e00: 1
    e01: 0
    e02: 0
    e03: 0
    e10: 0
    e11: 1
    e12: 0
    e13: 0
    e20: 0
    e21: 0
    e22: 1
    e23: 0
    e30: 0
    e31: 0
    e32: 0
    e33: 1
--- !u!483693784 &7837956147512151769
TilemapRenderer:
  m_ObjectHideFlags: 0
  m_CorrespondingSourceObject: {fileID: 0}
  m_PrefabInstance: {fileID: 0}
  m_PrefabAsset: {fileID: 0}
  m_GameObject: {fileID: 5542966417086053541}
  m_Enabled: 1
  m_CastShadows: 0
  m_ReceiveShadows: 0
  m_DynamicOccludee: 0
  m_StaticShadowCaster: 0
  m_MotionVectors: 1
  m_LightProbeUsage: 0
  m_ReflectionProbeUsage: 0
  m_RayTracingMode: 0
  m_RayTraceProcedural: 0
  m_RenderingLayerMask: 1
  m_RendererPriority: 0
  m_Materials:
  - {fileID: 10754, guid: 0000000000000000f000000000000000, type: 0}
  m_StaticBatchInfo:
    firstSubMesh: 0
    subMeshCount: 0
  m_StaticBatchRoot: {fileID: 0}
  m_ProbeAnchor: {fileID: 0}
  m_LightProbeVolumeOverride: {fileID: 0}
  m_ScaleInLightmap: 1
  m_ReceiveGI: 1
  m_PreserveUVs: 0
  m_IgnoreNormalsForChartDetection: 0
  m_ImportantGI: 0
  m_StitchLightmapSeams: 1
  m_SelectedEditorRenderState: 0
  m_MinimumChartSize: 4
  m_AutoUVMaxDistance: 0.5
  m_AutoUVMaxAngle: 89
  m_LightmapParameters: {fileID: 0}
  m_SortingLayerID: 0
  m_SortingLayer: 0
  m_SortingOrder: 0
  m_ChunkSize: {x: 32, y: 32, z: 32}
  m_ChunkCullingBounds: {x: 0.016129017, y: 0.016129017, z: 0}
  m_MaxChunkCount: 16
  m_MaxFrameAge: 16
  m_SortOrder: 0
  m_Mode: 0
  m_DetectChunkCullingBounds: 0
  m_MaskInteraction: 0
--- !u!1 &7880909389632418280
GameObject:
  m_ObjectHideFlags: 0
  m_CorrespondingSourceObject: {fileID: 0}
  m_PrefabInstance: {fileID: 0}
  m_PrefabAsset: {fileID: 0}
  serializedVersion: 6
  m_Component:
  - component: {fileID: 2286987030181537416}
  - component: {fileID: 6541741880830500564}
  m_Layer: 0
  m_Name: Platforms Palette
  m_TagString: Untagged
  m_Icon: {fileID: 0}
  m_NavMeshLayer: 0
  m_StaticEditorFlags: 0
  m_IsActive: 1
--- !u!4 &2286987030181537416
Transform:
  m_ObjectHideFlags: 0
  m_CorrespondingSourceObject: {fileID: 0}
  m_PrefabInstance: {fileID: 0}
  m_PrefabAsset: {fileID: 0}
  m_GameObject: {fileID: 7880909389632418280}
  serializedVersion: 2
  m_LocalRotation: {x: 0, y: 0, z: 0, w: 1}
  m_LocalPosition: {x: 0, y: 0, z: 0}
  m_LocalScale: {x: 1, y: 1, z: 1}
  m_ConstrainProportionsScale: 0
  m_Children:
  - {fileID: 4142348433834339889}
  m_Father: {fileID: 0}
  m_LocalEulerAnglesHint: {x: 0, y: 0, z: 0}
--- !u!156049354 &6541741880830500564
Grid:
  m_ObjectHideFlags: 0
  m_CorrespondingSourceObject: {fileID: 0}
  m_PrefabInstance: {fileID: 0}
  m_PrefabAsset: {fileID: 0}
  m_GameObject: {fileID: 7880909389632418280}
  m_Enabled: 1
  m_CellSize: {x: 1.032258, y: 1.032258, z: 0}
  m_CellGap: {x: 0, y: 0, z: 0}
  m_CellLayout: 0
  m_CellSwizzle: 0
--- !u!114 &8395728801668495887
MonoBehaviour:
  m_ObjectHideFlags: 0
  m_CorrespondingSourceObject: {fileID: 0}
  m_PrefabInstance: {fileID: 0}
  m_PrefabAsset: {fileID: 0}
  m_GameObject: {fileID: 0}
  m_Enabled: 1
  m_EditorHideFlags: 0
  m_Script: {fileID: 12395, guid: 0000000000000000e000000000000000, type: 0}
  m_Name: Palette Settings
  m_EditorClassIdentifier: 
  cellSizing: 0
  m_TransparencySortMode: 0
  m_TransparencySortAxis: {x: 0, y: 0, z: 1}
